…
Let's load up!

Task 2: Write function

Write one (or more) functions that do something useful to pieces of the Gapminder or Singer data. It is logical to think about computing on the mini-data frames corresponding to the data for each specific country, location, year, band, album, … This would pair well with the prompt below about working with a nested data frame, as you could apply your function there. Make it something you can’t easily do with built-in functions.

Make it something that’s not trivial to do with the simple dplyr verbs. The linear regression function presented here is a good starting point. You could generalize that to do quadratic regression (include a squared term) or use robust regression, using `MASS::rlm()` or `robustbase::lmrob()`.

``` r
#lets take a look at the dataframe 
gapminder 
```

    ## # A tibble: 1,704 x 6
    ##    country     continent  year lifeExp      pop gdpPercap
    ##    <fct>       <fct>     <int>   <dbl>    <int>     <dbl>
    ##  1 Afghanistan Asia       1952    28.8  8425333      779.
    ##  2 Afghanistan Asia       1957    30.3  9240934      821.
    ##  3 Afghanistan Asia       1962    32.0 10267083      853.
    ##  4 Afghanistan Asia       1967    34.0 11537966      836.
    ##  5 Afghanistan Asia       1972    36.1 13079460      740.
    ##  6 Afghanistan Asia       1977    38.4 14880372      786.
    ##  7 Afghanistan Asia       1982    39.9 12881816      978.
    ##  8 Afghanistan Asia       1987    40.8 13867957      852.
    ##  9 Afghanistan Asia       1992    41.7 16317921      649.
    ## 10 Afghanistan Asia       1997    41.8 22227415      635.
    ## # ... with 1,694 more rows
…
to make my life easier.
=======================

Create a nested data frame and map a function over the list column holding the nested data. Use list extraction or other functions to pull interesting information out of these results and work your way back to a simple data frame you can visualize and explore.

nesting the dataframe by country and continent (following Jenny's footsteps)
============================================================================

``` r
gapminder %>%
  group_by(country, continent) %>%
  nest()
```

    ## # A tibble: 142 x 3
    ##    country     continent data             
    ##    <fct>       <fct>     <list>           
    ##  1 Afghanistan Asia      <tibble [12 × 4]>
    ##  2 Albania     Europe    <tibble [12 × 4]>
    ##  3 Algeria     Africa    <tibble [12 × 4]>
    ##  4 Angola      Africa    <tibble [12 × 4]>
    ##  5 Argentina   Americas  <tibble [12 × 4]>
    ##  6 Australia   Oceania   <tibble [12 × 4]>
    ##  7 Austria     Europe    <tibble [12 × 4]>
    ##  8 Bahrain     Asia      <tibble [12 × 4]>
    ##  9 Bangladesh  Asia      <tibble [12 × 4]>
    ## 10 Belgium     Europe    <tibble [12 × 4]>
    ## # ... with 132 more rows
…
using broom to tidy up the data
===============================

``` r
(gap_nest2 <- gap_nest %>% 
   mutate(fit = map(data, ban_le_yr)))
```

    ## # A tibble: 142 x 4
    ##    country     continent data              fit     
    ##    <fct>       <fct>     <list>            <list>  
    ##  1 Afghanistan Asia      <tibble [12 × 4]> <S3: lm>
    ##  2 Albania     Europe    <tibble [12 × 4]> <S3: lm>
    ##  3 Algeria     Africa    <tibble [12 × 4]> <S3: lm>
    ##  4 Angola      Africa    <tibble [12 × 4]> <S3: lm>
    ##  5 Argentina   Americas  <tibble [12 × 4]> <S3: lm>
    ##  6 Australia   Oceania   <tibble [12 × 4]> <S3: lm>
    ##  7 Austria     Europe    <tibble [12 × 4]> <S3: lm>
    ##  8 Bahrain     Asia      <tibble [12 × 4]> <S3: lm>
    ##  9 Bangladesh  Asia      <tibble [12 × 4]> <S3: lm>
    ## 10 Belgium     Europe    <tibble [12 × 4]> <S3: lm>
    ## # ... with 132 more rows
…
    ## # A tibble: 3 x 5
    ##   term            estimate   std.error statistic  p.value
    ##   <chr>              <dbl>       <dbl>     <dbl>    <dbl>
    ## 1 (Intercept)  10493.      2234.            4.70 0.00113 
    ## 2 I(year)        -11.1        2.26         -4.89 0.000854
    ## 3 I(year^2)        0.00292    0.000570      5.12 0.000632

``` r
gap_nest2 %>% 
  mutate(tidy = map(fit, tidy))
```

    ## # A tibble: 142 x 5
    ##    country     continent data              fit      tidy            
    ##    <fct>       <fct>     <list>            <list>   <list>          
    ##  1 Afghanistan Asia      <tibble [12 × 4]> <S3: lm> <tibble [3 × 5]>
    ##  2 Albania     Europe    <tibble [12 × 4]> <S3: lm> <tibble [3 × 5]>
    ##  3 Algeria     Africa    <tibble [12 × 4]> <S3: lm> <tibble [3 × 5]>
    ##  4 Angola      Africa    <tibble [12 × 4]> <S3: lm> <tibble [3 × 5]>
    ##  5 Argentina   Americas  <tibble [12 × 4]> <S3: lm> <tibble [3 × 5]>
    ##  6 Australia   Oceania   <tibble [12 × 4]> <S3: lm> <tibble [3 × 5]>
    ##  7 Austria     Europe    <tibble [12 × 4]> <S3: lm> <tibble [3 × 5]>
    ##  8 Bahrain     Asia      <tibble [12 × 4]> <S3: lm> <tibble [3 × 5]>
    ##  9 Bangladesh  Asia      <tibble [12 × 4]> <S3: lm> <tibble [3 × 5]>
    ## 10 Belgium     Europe    <tibble [12 × 4]> <S3: lm> <tibble [3 × 5]>
    ## # ... with 132 more rows

``` r
gap_nest2 %>% 
  mutate(tidy = map(fit, tidy)) %>%
  select(continent, country, tidy)
```

    ## # A tibble: 142 x 3
    ##    continent country     tidy            
    ##    <fct>     <fct>       <list>          
    ##  1 Asia      Afghanistan <tibble [3 × 5]>
    ##  2 Europe    Albania     <tibble [3 × 5]>
    ##  3 Africa    Algeria     <tibble [3 × 5]>
    ##  4 Africa    Angola      <tibble [3 × 5]>
    ##  5 Americas  Argentina   <tibble [3 × 5]>
    ##  6 Oceania   Australia   <tibble [3 × 5]>
    ##  7 Europe    Austria     <tibble [3 × 5]>
    ##  8 Asia      Bahrain     <tibble [3 × 5]>
    ##  9 Asia      Bangladesh  <tibble [3 × 5]>
    ## 10 Europe    Belgium     <tibble [3 × 5]>
    ## # ... with 132 more rows

``` r
gap_nest2 %>% 
  mutate(tidy = map(fit, tidy)) %>%
  select(continent, country, tidy) %>%
  unnest(tidy)
```

    ## # A tibble: 426 x 7
    ##    continent country    term         estimate  std.error statistic p.value
    ##    <fct>     <fct>      <chr>           <dbl>      <dbl>     <dbl>   <dbl>
    ##  1 Asia      Afghanist… (Interce…    -1.53e+4    2.51e+3     -6.08 1.83e-4
    ##  2 Asia      Afghanist… I(year)       1.52e+1    2.54e+0      5.99 2.05e-4
    ##  3 Asia      Afghanist… I(year^2)    -3.77e-3    6.41e-4     -5.88 2.34e-4
    ##  4 Europe    Albania    (Interce…    -2.09e+4    5.88e+3     -3.56 6.16e-3
    ##  5 Europe    Albania    I(year)       2.09e+1    5.94e+0      3.51 6.61e-3
    ##  6 Europe    Albania    I(year^2)    -5.18e-3    1.50e-3     -3.45 7.23e-3
    ##  7 Africa    Algeria    (Interce…    -1.33e+4    4.37e+3     -3.04 1.39e-2
    ##  8 Africa    Algeria    I(year)       1.29e+1    4.42e+0      2.93 1.68e-2
    ##  9 Africa    Algeria    I(year^2)    -3.13e-3    1.12e-3     -2.80 2.07e-2
    ## 10 Africa    Angola     (Interce…    -1.76e+4    2.78e+3     -6.32 1.38e-4
    ## # ... with 416 more rows
…
